…
To tidy it back up, pivot_longer is used on the M and B columns while
using values_drop_na = TRUE to ensure that there are no duplicate rows.
Then, select() and everything() is used to reorder the columns to return
it to the initial dataset.

``` r
#Untidy dataset
untidy_cancer_sample = cancer_sample %>% pivot_wider(names_from = diagnosis, values_from = radius_mean)
untidy_cancer_sample
```

    ## # A tibble: 569 × 32
    ##          ID texture_mean perim…¹ area_…² smoot…³ compa…⁴ conca…⁵ conca…⁶ symme…⁷
    ##       <dbl>        <dbl>   <dbl>   <dbl>   <dbl>   <dbl>   <dbl>   <dbl>   <dbl>
    ##  1   842302         10.4   123.    1001   0.118   0.278   0.300   0.147    0.242
    ##  2   842517         17.8   133.    1326   0.0847  0.0786  0.0869  0.0702   0.181
    ##  3 84300903         21.2   130     1203   0.110   0.160   0.197   0.128    0.207
    ##  4 84348301         20.4    77.6    386.  0.142   0.284   0.241   0.105    0.260
    ##  5 84358402         14.3   135.    1297   0.100   0.133   0.198   0.104    0.181
    ##  6   843786         15.7    82.6    477.  0.128   0.17    0.158   0.0809   0.209
    ##  7   844359         20.0   120.    1040   0.0946  0.109   0.113   0.074    0.179
    ##  8 84458202         20.8    90.2    578.  0.119   0.164   0.0937  0.0598   0.220
    ##  9   844981         21.8    87.5    520.  0.127   0.193   0.186   0.0935   0.235
    ## 10 84501001         24.0    84.0    476.  0.119   0.240   0.227   0.0854   0.203
    ## # … with 559 more rows, 23 more variables: fractal_dimension_mean <dbl>,
    ## #   radius_se <dbl>, texture_se <dbl>, perimeter_se <dbl>, area_se <dbl>,
    ## #   smoothness_se <dbl>, compactness_se <dbl>, concavity_se <dbl>,
    ## #   concave_points_se <dbl>, symmetry_se <dbl>, fractal_dimension_se <dbl>,
    ## #   radius_worst <dbl>, texture_worst <dbl>, perimeter_worst <dbl>,
    ## #   area_worst <dbl>, smoothness_worst <dbl>, compactness_worst <dbl>,
    ## #   concavity_worst <dbl>, concave_points_worst <dbl>, symmetry_worst <dbl>, …

``` r
#Tidy dataset
tidy_cancer_sample = untidy_cancer_sample %>% pivot_longer(cols = c(M, B), names_to  = 'diagnosis', values_to = 'radius_mean', values_drop_na = TRUE) %>% select(ID, diagnosis, radius_mean, everything())
tidy_cancer_sample
```

    ## # A tibble: 569 × 32
    ##          ID diagnosis radius_m…¹ textu…² perim…³ area_…⁴ smoot…⁵ compa…⁶ conca…⁷
    ##       <dbl> <chr>          <dbl>   <dbl>   <dbl>   <dbl>   <dbl>   <dbl>   <dbl>
    ##  1   842302 M               18.0    10.4   123.    1001   0.118   0.278   0.300 
    ##  2   842517 M               20.6    17.8   133.    1326   0.0847  0.0786  0.0869
    ##  3 84300903 M               19.7    21.2   130     1203   0.110   0.160   0.197 
    ##  4 84348301 M               11.4    20.4    77.6    386.  0.142   0.284   0.241 
    ##  5 84358402 M               20.3    14.3   135.    1297   0.100   0.133   0.198 
    ##  6   843786 M               12.4    15.7    82.6    477.  0.128   0.17    0.158 
    ##  7   844359 M               18.2    20.0   120.    1040   0.0946  0.109   0.113 
    ##  8 84458202 M               13.7    20.8    90.2    578.  0.119   0.164   0.0937
    ##  9   844981 M               13      21.8    87.5    520.  0.127   0.193   0.186 
    ## 10 84501001 M               12.5    24.0    84.0    476.  0.119   0.240   0.227 
    ## # … with 559 more rows, 23 more variables: concave_points_mean <dbl>,
    ## #   symmetry_mean <dbl>, fractal_dimension_mean <dbl>, radius_se <dbl>,
    ## #   texture_se <dbl>, perimeter_se <dbl>, area_se <dbl>, smoothness_se <dbl>,
    ## #   compactness_se <dbl>, concavity_se <dbl>, concave_points_se <dbl>,
    ## #   symmetry_se <dbl>, fractal_dimension_se <dbl>, radius_worst <dbl>,
    ## #   texture_worst <dbl>, perimeter_worst <dbl>, area_worst <dbl>,
    ## #   smoothness_worst <dbl>, compactness_worst <dbl>, concavity_worst <dbl>, …
…
