…
``` r
#Exercise 5

#Filter observations so that only rows with a worst radius greater than the third quartile are included
cancer_sample %>% filter(radius_worst > quantile(cancer_sample$radius_worst, .75))
```

    ## # A tibble: 142 × 32
    ##          ID diagnosis radius_m…¹ textu…² perim…³ area_…⁴ smoot…⁵ compa…⁶ conca…⁷
    ##       <dbl> <chr>          <dbl>   <dbl>   <dbl>   <dbl>   <dbl>   <dbl>   <dbl>
    ##  1   842302 M               18.0    10.4   123.    1001   0.118   0.278   0.300 
    ##  2   842517 M               20.6    17.8   133.    1326   0.0847  0.0786  0.0869
    ##  3 84300903 M               19.7    21.2   130     1203   0.110   0.160   0.197 
    ##  4 84358402 M               20.3    14.3   135.    1297   0.100   0.133   0.198 
    ##  5   844359 M               18.2    20.0   120.    1040   0.0946  0.109   0.113 
    ##  6   845636 M               16.0    23.2   103.     798.  0.0821  0.0667  0.0330
    ##  7 84610002 M               15.8    17.9   104.     781   0.0971  0.129   0.0995
    ##  8   846226 M               19.2    24.8   132.    1123   0.0974  0.246   0.206 
    ##  9   848406 M               14.7    20.1    94.7    684.  0.0987  0.072   0.0740
    ## 10 84862001 M               16.1    20.7   108.     799.  0.117   0.202   0.172 
    ## # … with 132 more rows, 23 more variables: concave_points_mean <dbl>,
    ## #   symmetry_mean <dbl>, fractal_dimension_mean <dbl>, radius_se <dbl>,
    ## #   texture_se <dbl>, perimeter_se <dbl>, area_se <dbl>, smoothness_se <dbl>,
    ## #   compactness_se <dbl>, concavity_se <dbl>, concave_points_se <dbl>,
    ## #   symmetry_se <dbl>, fractal_dimension_se <dbl>, radius_worst <dbl>,
    ## #   texture_worst <dbl>, perimeter_worst <dbl>, area_worst <dbl>,
    ## #   smoothness_worst <dbl>, compactness_worst <dbl>, concavity_worst <dbl>, …
…
